% Generated by IEEEtran.bst, version: 1.13 (2008/09/30)
\begin{thebibliography}{1}
\providecommand{\url}[1]{#1}
\csname url@samestyle\endcsname
\providecommand{\newblock}{\relax}
\providecommand{\bibinfo}[2]{#2}
\providecommand{\BIBentrySTDinterwordspacing}{\spaceskip=0pt\relax}
\providecommand{\BIBentryALTinterwordstretchfactor}{4}
\providecommand{\BIBentryALTinterwordspacing}{\spaceskip=\fontdimen2\font plus
\BIBentryALTinterwordstretchfactor\fontdimen3\font minus
  \fontdimen4\font\relax}
\providecommand{\BIBforeignlanguage}[2]{{%
\expandafter\ifx\csname l@#1\endcsname\relax
\typeout{** WARNING: IEEEtran.bst: No hyphenation pattern has been}%
\typeout{** loaded for the language `#1'. Using the pattern for}%
\typeout{** the default language instead.}%
\else
\language=\csname l@#1\endcsname
\fi
#2}}
\providecommand{\BIBdecl}{\relax}
\BIBdecl

\bibitem{KoruT04}
A.~G. Koru and J.~Tian, ``Defect handling in medium and large open source
  projects,'' \emph{IEEE Software}, vol.~21, no.~4, pp. 54--61, 2004.

\bibitem{DBLP:journals/ese/Gonzalez-BarahonaRMAG09}
J.~M. Gonz{\'a}lez-Barahona, G.~Robles, M.~Michlmayr, J.~J. Amor, and D.~M.
  Germ{\'a}n, ``Macro-level software evolution: a case study of a large
  software compilation,'' \emph{Empirical Software Engineering}, vol.~14,
  no.~3, pp. 262--285, 2009.

\bibitem{DBLP:conf/esem/Perez-FranciscoPR07}
M.~P{\'e}rez-Francisco, P.~B. Perez, and G.~Robles, ``Correlation between bug
  notifications, messages and participants in debian's bug tracking system,''
  in \emph{ESEM}.\hskip 1em plus 0.5em minus 0.4em\relax IEEE Computer Society,
  2007, pp. 455--457.

\end{thebibliography}
